%YAML 1.1
%TAG !u! tag:unity3d.com,2011:
--- !u!1001 &6317628487042557784
PrefabInstance:
  m_ObjectHideFlags: 0
  serializedVersion: 2
  m_Modification:
    m_TransformParent: {fileID: 0}
    m_Modifications:
    - target: {fileID: 2692355667594853862, guid: 8d3104f649315b24fbb8342c297a874e,
        type: 3}
      propertyPath: m_NavMeshLayer
      value: 1
      objectReference: {fileID: 0}
    - target: {fileID: 2692355667594853862, guid: 8d3104f649315b24fbb8342c297a874e,
        type: 3}
      propertyPath: m_IsActive
      value: 1
      objectReference: {fileID: 0}
    - target: {fileID: 2692355667594853863, guid: 8d3104f649315b24fbb8342c297a874e,
        type: 3}
      propertyPath: m_LocalPosition.x
      value: 59.49
      objectReference: {fileID: 0}
    - target: {fileID: 2692355667594853863, guid: 8d3104f649315b24fbb8342c297a874e,
        type: 3}
      propertyPath: m_LocalPosition.z
      value: 24.72
      objectReference: {fileID: 0}
    - target: {fileID: 2692355668320101665, guid: 8d3104f649315b24fbb8342c297a874e,
        type: 3}
      propertyPath: m_NavMeshLayer
      value: 1
      objectReference: {fileID: 0}
    - target: {fileID: 2692355668749850750, guid: 8d3104f649315b24fbb8342c297a874e,
        type: 3}
      propertyPath: m_NavMeshLayer
      value: 1
      objectReference: {fileID: 0}
    - target: {fileID: 2692355668749850750, guid: 8d3104f649315b24fbb8342c297a874e,
        type: 3}
      propertyPath: m_IsActive
      value: 1
      objectReference: {fileID: 0}
    - target: {fileID: 6450595400346963828, guid: 8d3104f649315b24fbb8342c297a874e,
        type: 3}
      propertyPath: m_LocalPosition.x
      value: 0
      objectReference: {fileID: 0}
    - target: {fileID: 6450595400346963828, guid: 8d3104f649315b24fbb8342c297a874e,
        type: 3}
      propertyPath: m_LocalPosition.y
      value: 1
      objectReference: {fileID: 0}
    - target: {fileID: 6450595400346963828, guid: 8d3104f649315b24fbb8342c297a874e,
        type: 3}
      propertyPath: m_LocalPosition.z
      value: -1.8500061
      objectReference: {fileID: 0}
    - target: {fileID: 6450595400346963828, guid: 8d3104f649315b24fbb8342c297a874e,
        type: 3}
      propertyPath: m_LocalRotation.x
      value: 0
      objectReference: {fileID: 0}
    - target: {fileID: 6450595400346963828, guid: 8d3104f649315b24fbb8342c297a874e,
        type: 3}
      propertyPath: m_LocalRotation.y
      value: 0
      objectReference: {fileID: 0}
    - target: {fileID: 6450595400346963828, guid: 8d3104f649315b24fbb8342c297a874e,
        type: 3}
      propertyPath: m_LocalRotation.z
      value: 0
      objectReference: {fileID: 0}
    - target: {fileID: 6450595400346963828, guid: 8d3104f649315b24fbb8342c297a874e,
        type: 3}
      propertyPath: m_LocalRotation.w
      value: 1
      objectReference: {fileID: 0}
    - target: {fileID: 6450595400346963828, guid: 8d3104f649315b24fbb8342c297a874e,
        type: 3}
      propertyPath: m_RootOrder
      value: 0
      objectReference: {fileID: 0}
    - target: {fileID: 6450595400346963828, guid: 8d3104f649315b24fbb8342c297a874e,
        type: 3}
      propertyPath: m_LocalEulerAnglesHint.x
      value: 0
      objectReference: {fileID: 0}
    - target: {fileID: 6450595400346963828, guid: 8d3104f649315b24fbb8342c297a874e,
        type: 3}
      propertyPath: m_LocalEulerAnglesHint.y
      value: 0
      objectReference: {fileID: 0}
    - target: {fileID: 6450595400346963828, guid: 8d3104f649315b24fbb8342c297a874e,
        type: 3}
      propertyPath: m_LocalEulerAnglesHint.z
      value: 0
      objectReference: {fileID: 0}
    - target: {fileID: 6450595400346963829, guid: 8d3104f649315b24fbb8342c297a874e,
        type: 3}
      propertyPath: m_Name
      value: SpawnPoints
      objectReference: {fileID: 0}
    - target: {fileID: 6450595400346963829, guid: 8d3104f649315b24fbb8342c297a874e,
        type: 3}
      propertyPath: m_NavMeshLayer
      value: 1
      objectReference: {fileID: 0}
    - target: {fileID: 6450595401625036431, guid: 8d3104f649315b24fbb8342c297a874e,
        type: 3}
      propertyPath: reloadTime
      value: 5
      objectReference: {fileID: 0}
    - target: {fileID: 6450595401625036529, guid: 8d3104f649315b24fbb8342c297a874e,
        type: 3}
      propertyPath: m_NavMeshLayer
      value: 1
      objectReference: {fileID: 0}
    - target: {fileID: 8995998943820284944, guid: 8d3104f649315b24fbb8342c297a874e,
        type: 3}
      propertyPath: m_NavMeshLayer
      value: 1
      objectReference: {fileID: 0}
    - target: {fileID: 8995998943820284944, guid: 8d3104f649315b24fbb8342c297a874e,
        type: 3}
      propertyPath: m_IsActive
      value: 1
      objectReference: {fileID: 0}
    - target: {fileID: 8995998943820284945, guid: 8d3104f649315b24fbb8342c297a874e,
        type: 3}
      propertyPath: m_LocalPosition.z
      value: -126.27
      objectReference: {fileID: 0}
    - target: {fileID: 8995998943820284945, guid: 8d3104f649315b24fbb8342c297a874e,
        type: 3}
      propertyPath: m_LocalPosition.x
      value: 125.83
      objectReference: {fileID: 0}
    - target: {fileID: 8995998943820284945, guid: 8d3104f649315b24fbb8342c297a874e,
        type: 3}
      propertyPath: m_LocalPosition.y
      value: 1.03
      objectReference: {fileID: 0}
    - target: {fileID: 8995998943824143322, guid: 8d3104f649315b24fbb8342c297a874e,
        type: 3}
      propertyPath: m_NavMeshLayer
      value: 1
      objectReference: {fileID: 0}
    - target: {fileID: 8995998943824143322, guid: 8d3104f649315b24fbb8342c297a874e,
        type: 3}
      propertyPath: m_IsActive
      value: 1
      objectReference: {fileID: 0}
    - target: {fileID: 8995998943871561859, guid: 8d3104f649315b24fbb8342c297a874e,
        type: 3}
      propertyPath: m_NavMeshLayer
      value: 1
      objectReference: {fileID: 0}
    - target: {fileID: 8995998943871561859, guid: 8d3104f649315b24fbb8342c297a874e,
        type: 3}
      propertyPath: m_IsActive
      value: 1
      objectReference: {fileID: 0}
    - target: {fileID: 8995998944071045424, guid: 8d3104f649315b24fbb8342c297a874e,
        type: 3}
      propertyPath: m_NavMeshLayer
      value: 1
      objectReference: {fileID: 0}
    - target: {fileID: 8995998944071045424, guid: 8d3104f649315b24fbb8342c297a874e,
        type: 3}
      propertyPath: m_IsActive
      value: 1
      objectReference: {fileID: 0}
    m_RemovedComponents: []
  m_SourcePrefab: {fileID: 100100000, guid: 8d3104f649315b24fbb8342c297a874e, type: 3}
